DATA; ORA; BADGE; OPERAZIONE; SHORT CODE; NR DISEGNO; SN; TIPO; DESCRIZIONE; ESITO
24/05/2020;23:21:52;04073198;LETTURA DATABOLT;S04;6700527130;0580E00008; CO;TESTA;ND
24/05/2020;23:22:16;04073198;SCRITTURA DATABOLT;S04;6700527130;0580E00008; CO;TESTA;PEZZO BUONO
