DATA; ORA; BADGE; OPERAZIONE; SHORT CODE; NR DISEGNO; SN; TIPO; DESCRIZIONE; ESITO
11/06/2020;13:16:50;00000000;LETTURA DATABOLT;S04;6700527130;0580E00008; CO;TESTA;ND
11/06/2020;13:16:51;00000000;ANNULLAMENTO SCRITTURA;S04;6700527130;0580E00008; CO;TESTA;RECUPERO ELEMENTO;
11/06/2020;13:17:04;00000000;LETTURA DATABOLT;S04;6700527130;0580E00008; CO;TESTA;ND
11/06/2020;13:17:34;00000000;ANNULLAMENTO SCRITTURA;S04;6700527130;0580E00008; CO;TESTA;RECUPERO ELEMENTO;TAG_NR:180 -- CARTELLINO_NR:9;TAG_NR:170 -- CARTELLINO_NR:9;
11/06/2020;15:00:24;00000000;LETTURA DATABOLT;S04;6700527130;0580E00008; CO;TESTA;ND
11/06/2020;15:02:22;00000000;ANNULLAMENTO SCRITTURA;S04;6700527130;0580E00008; CO;TESTA;RECUPERO ELEMENTO;TAG_NR:780 -- CARTELLINO_NR:13;
11/06/2020;15:10:04;00000000;LETTURA DATABOLT;D04;6700527120;0590E00002; CO;TESTA;ND
11/06/2020;15:10:04;00000000;ANNULLAMENTO SCRITTURA;D04;6700527120;0590E00002; CO;TESTA;RECUPERO ELEMENTO;
11/06/2020;15:10:15;00000000;LETTURA DATABOLT;D04;6700527120;0590E00002; CO;TESTA;ND
11/06/2020;15:10:15;00000000;ANNULLAMENTO SCRITTURA;D04;6700527120;0590E00002; CO;TESTA;RECUPERO ELEMENTO;
11/06/2020;15:10:57;00000000;LETTURA DATABOLT;D04;6700527120;0590E00002; CO;TESTA;ND
11/06/2020;15:12:55;00000000;ANNULLAMENTO SCRITTURA;D04;6700527120;0590E00002; CO;TESTA;RECUPERO ELEMENTO;TAG_NR:930 -- CARTELLINO_NR:13;
11/06/2020;15:40:06;00000000;LETTURA DATABOLT;S04;6700527130;0580E00008; CO;TESTA;ND
11/06/2020;15:40:06;00000000;ANNULLAMENTO SCRITTURA;S04;6700527130;0580E00008; CO;TESTA;RECUPERO ELEMENTO;
11/06/2020;15:40:43;00000000;LETTURA DATABOLT;S04;6700527130;0580E00008; CO;TESTA;ND
11/06/2020;15:43:18;00000000;ANNULLAMENTO SCRITTURA;S04;6700527130;0580E00008; CO;TESTA;RECUPERO ELEMENTO;TAG_NR:560 -- CARTELLINO_NR:3;TAG_NR:570 -- CARTELLINO_NR:3;TAG_NR:600 -- CARTELLINO_NR:5;
11/06/2020;17:20:20;00000000;LETTURA DATABOLT;S04;6700527130;0580E00008; CO;TESTA;ND
11/06/2020;17:20:20;00000000;ANNULLAMENTO SCRITTURA;S04;6700527130;0580E00008; CO;TESTA;RECUPERO ELEMENTO;
11/06/2020;17:20:36;00000000;LETTURA DATABOLT;S04;6700527130;0580E00008; CO;TESTA;ND
11/06/2020;17:20:49;00000000;ANNULLAMENTO SCRITTURA;S04;6700527130;0580E00008; CO;TESTA;RECUPERO ELEMENTO;TAG_NR:600 -- CARTELLINO_NR:5;
11/06/2020;17:21:09;00000000;LETTURA DATABOLT;S04;6700527130;0580E00008; CO;TESTA;ND
11/06/2020;17:21:26;00000000;SCRITTURA DATABOLT;S04;6700527130;0580E00008; CO;TESTA;PEZZO SCARTO
11/06/2020;19:27:12;00000000;LETTURA DATABOLT;S04;6700527130;0580E00008; CO;TESTA;ND
11/06/2020;19:27:51;00000000;LETTURA DATABOLT;S04;6700527130;0580E00008; CO;TESTA;ND
11/06/2020;19:28:09;00000000;ANNULLAMENTO SCRITTURA;S04;6700527130;0580E00008; CO;TESTA;RECUPERO ELEMENTO;TAG_NR:580 -- CARTELLINO_NR:4;
11/06/2020;19:28:31;00000000;LETTURA DATABOLT;S04;6700527130;0580E00008; CO;TESTA;ND
11/06/2020;19:28:39;00000000;SCRITTURA DATABOLT;S04;6700527130;0580E00008; CO;TESTA;PEZZO BUONO
11/06/2020;19:28:41;00000000;SCRITTURA DATABOLT;S04;6700527130;0580E00008; CO;TESTA;PEZZO BUONO
11/06/2020;19:28:42;00000000;SCRITTURA DATABOLT;S04;6700527130;0580E00008; CO;TESTA;PEZZO BUONO
11/06/2020;19:29:24;00000000;LETTURA DATABOLT;S04;6700527130;0580E00008; CO;TESTA;ND
11/06/2020;19:30:03;00000000;LETTURA DATABOLT;D04;6700527120;0590E00002; CO;TESTA;ND
11/06/2020;19:33:05;00000000;LETTURA DATABOLT;S04;6700527130;0580E00008; CO;TESTA;ND
11/06/2020;19:34:24;00000000;LETTURA DATABOLT;S04;6700527130;0580E00008; CO;TESTA;ND
11/06/2020;19:42:05;00000000;LETTURA DATABOLT;S04;6700527130;0580E00013; CO;TESTA;ND
11/06/2020;19:42:27;00000000;SCRITTURA DATABOLT;S04;6700527130;0580E00013; CO;TESTA;PEZZO SCARTO
11/06/2020;19:42:56;00000000;LETTURA DATABOLT;S04;6700527130;0570E00011; CO;TESTA;ND
11/06/2020;19:43:11;00000000;LETTURA DATABOLT;S04;6700527130;0580E00014; CO;TESTA;ND
11/06/2020;19:43:21;00000000;LETTURA DATABOLT;S04;6700527130;0580E00008; CO;TESTA;ND
11/06/2020;19:43:30;00000000;LETTURA DATABOLT;D04;6700527120;0590E00002; CO;TESTA;ND
11/06/2020;19:43:57;00000000;LETTURA DATABOLT;D04;6700527120;0580E00003; CO;TESTA;ND
11/06/2020;19:44:10;00000000;LETTURA DATABOLT;S04;6700527130;0580E00013; CO;TESTA;ND
11/06/2020;19:44:23;00000000;LETTURA DATABOLT;S04;6700527130;0580E00009; CO;TESTA;ND
11/06/2020;19:47:14;00000000;LETTURA DATABOLT;S04;6700527130;0580E00008; CO;TESTA;ND
11/06/2020;19:47:14;00000000;ANNULLAMENTO SCRITTURA;S04;6700527130;0580E00008; CO;TESTA;RECUPERO ELEMENTO;
11/06/2020;19:47:19;00000000;LETTURA DATABOLT;S04;6700527130;0580E00008; CO;TESTA;ND
11/06/2020;19:47:19;00000000;ANNULLAMENTO SCRITTURA;S04;6700527130;0580E00008; CO;TESTA;RECUPERO ELEMENTO;
11/06/2020;19:47:37;00000000;LETTURA DATABOLT;S04;6700527130;0580E00008; CO;TESTA;ND
