DATA; ORA; BADGE; OPERAZIONE; SHORT CODE; NR DISEGNO; SN; TIPO; DESCRIZIONE; ESITO
28/05/2020;23:43:42;04073198;LETTURA DATABOLT;S04;6700527130;0580E00008; CO;TESTA;ND
28/05/2020;23:44:08;04073198;SCRITTURA DATABOLT;S04;6700527130;0580E00008; CO;TESTA;RECUPERO ELEMENTO;PUNTO DI CONTROLLO NR:   580   --  NEL CARTELLINO NR:  4;PUNTO DI CONTROLLO NR:   590   --  NEL CARTELLINO NR:  4;PUNTO DI CONTROLLO NR:   620   --  NEL CARTELLINO NR:  6;
